{
	"info": {
		"_postman_id": "fcfbf85d-3a8b-4a90-80ef-b25a3981e3ef",
		"name": "BitTrack API Documentation",
		"schema": "https://schema.getpostman.com/json/collection/v2.1.0/collection.json"
	},
	"item": [
		{
			"name": "API test",
			"event": [
				{
					"listen": "test",
					"script": {
						"exec": [
							"pm.test(\"Status code is 200\", function () {\r",
							"    pm.response.to.have.status(200);\r",
							"});\r",
							"\r",
							"pm.test(\"Body matches string\", function () {\r",
							"    pm.expect(pm.response.text()).to.include(\"TEST123test\");\r",
							"});"
						],
						"type": "text/javascript"
					}
				}
			],
			"request": {
				"method": "GET",
				"header": [],
				"url": {
					"raw": "{{url}}api/test",
					"host": [
						"{{url}}api"
					],
					"path": [
						"test"
					]
				}
			},
			"response": [
				{
					"name": "API test",
					"originalRequest": {
						"method": "GET",
						"header": [],
						"url": {
							"raw": "{{url}}api/test",
							"host": [
								"{{url}}api"
							],
							"path": [
								"test"
							]
						}
					},
					"status": "OK",
					"code": 200,
					"_postman_previewlanguage": "html",
					"header": [
						{
							"key": "Content-Type",
							"value": "text/html; charset=utf-8"
						},
						{
							"key": "Access-Control-Allow-Origin",
							"value": "*"
						},
						{
							"key": "X-Cloud-Trace-Context",
							"value": "cd084dfa42c2663ca1151cb356df1533;o=1"
						},
						{
							"key": "Date",
							"value": "Fri, 23 Apr 2021 21:04:54 GMT"
						},
						{
							"key": "Server",
							"value": "Google Frontend"
						},
						{
							"key": "Content-Length",
							"value": "11"
						}
					],
					"cookie": [],
					"body": "TEST123test"
				}
			]
		},
		{
			"name": "Cryptocurrencies",
			"event": [
				{
					"listen": "test",
					"script": {
						"exec": [
							"pm.test(\"Status code is 200\", function () {\r",
							"    pm.response.to.have.status(200);\r",
							"});\r",
							"\r",
							"pm.test(\"Test Binance\", function () {\r",
							"    var jsonData = pm.response.json();\r",
							"    pm.expect(jsonData['Binance Coin']['exchange_rate']).to.eql(541.8);\r",
							"});\r",
							"\r",
							"pm.test(\"Test Binance Length\", function () {\r",
							"    var jsonData = pm.response.json();\r",
							"    pm.expect(jsonData['Binance Coin'][\"exchanges_accepting\"].length).to.eql(20);\r",
							"});\r",
							"\r",
							"pm.test(\"Response time is less than 500ms\", function () {\r",
							"    pm.expect(pm.response.responseTime).to.be.below(500);\r",
							"});"
						],
						"type": "text/javascript"
					}
				}
			],
			"request": {
				"method": "GET",
				"header": [],
				"url": {
					"raw": "{{url}}api/cryptocurrencies",
					"host": [
						"{{url}}api"
					],
					"path": [
						"cryptocurrencies"
					]
				}
			},
			"response": [
				{
					"name": "Cryptocurrencies",
					"originalRequest": {
						"method": "GET",
						"header": [],
						"url": {
							"raw": "{{url}}api/cryptocurrencies",
							"host": [
								"{{url}}api"
							],
							"path": [
								"cryptocurrencies"
							]
						}
					},
					"status": "OK",
					"code": 200,
					"_postman_previewlanguage": "json",
					"header": [
						{
							"key": "Content-Type",
							"value": "application/json"
						},
						{
							"key": "Vary",
							"value": "Accept-Encoding"
						},
						{
							"key": "Access-Control-Allow-Origin",
							"value": "*"
						},
						{
							"key": "Content-Encoding",
							"value": "gzip"
						},
						{
							"key": "X-Cloud-Trace-Context",
							"value": "ca56809f38c8d4b2b78f68c2d900d2c9;o=1"
						},
						{
							"key": "Date",
							"value": "Fri, 23 Apr 2021 21:32:49 GMT"
						},
						{
							"key": "Server",
							"value": "Google Frontend"
						},
						{
							"key": "Cache-Control",
							"value": "private"
						},
						{
							"key": "Content-Length",
							"value": "3818"
						}
					],
					"cookie": [],
					"body": "{\n    \"Binance Coin\": {\n        \"exchange_rate\": 541.8,\n        \"exchanges_accepting\": [\n            \"FTX (Spot)\",\n            \"Binance\",\n            \"WhiteBIT\",\n            \"Binance US\",\n            \"MXC\",\n            \"Gate.io\",\n            \"Kucoin\",\n            \"HitBTC\",\n            \"Bitrue\",\n            \"OceanEx\",\n            \"Bit-Z\",\n            \"EXX\",\n            \"BitForex\",\n            \"BitMart\",\n            \"DragonEX\",\n            \"Binance Futures\",\n            \"FTX Futures\",\n            \"Binance JEX (Spot)\",\n            \"CoinTiger\",\n            \"Indoex\"\n        ],\n        \"icon_url\": \"https://static.coinpaprika.com/coin/bnb-binance-coin/logo.png\",\n        \"id\": 3,\n        \"market_cap\": 74549026424,\n        \"name\": \"Binance Coin\",\n        \"symbol\": \"BNB\",\n        \"volume\": 7549944237\n    },\n    \"BitTorrent\": {\n        \"exchange_rate\": 0.007560814902,\n        \"exchanges_accepting\": [\n            \"Kucoin\",\n            \"Binance\",\n            \"HitBTC\",\n            \"CoinTiger\",\n            \"Gate.io\",\n            \"Bitrue\",\n            \"OKEx\",\n            \"MXC\",\n            \"WhiteBIT\",\n            \"Bibox\",\n            \"Huobi\",\n            \"BitMart\",\n            \"BitForex\",\n            \"Upbit\",\n            \"DragonEX\",\n            \"Bitfinex\"\n        ],\n        \"icon_url\": \"https://static.coinpaprika.com/coin/btt-bittorrent/logo.png\",\n        \"id\": 16,\n        \"market_cap\": 7837878982,\n        \"name\": \"BitTorrent\",\n        \"symbol\": \"BTT\",\n        \"volume\": 1354134560\n    },\n    \"Bitcoin\": {\n        \"exchange_rate\": 53897.17702772269,\n        \"exchanges_accepting\": [\n            \"Binance\",\n            \"Coinbase Pro\",\n            \"OKEx\",\n            \"Bitfinex\",\n            \"FTX (Spot)\",\n            \"Kraken\",\n            \"BitKop\",\n            \"OceanEx\",\n            \"HitBTC\",\n            \"Bequant\",\n            \"CoinTiger\",\n            \"Binance US\",\n            \"Bitrue\",\n            \"QB\",\n            \"BitMart\",\n            \"Kucoin\",\n            \"Huobi\",\n            \"WhiteBIT\",\n            \"Gate.io\",\n            \"Coinbene\",\n            \"Bibox\",\n            \"Binance JEX (Spot)\",\n            \"MXC\",\n            \"BitForex\",\n            \"CEX\",\n            \"ZB.COM\",\n            \"Upbit\",\n            \"Bit-Z\",\n            \"DragonEX\",\n            \"BTC-Alpha\",\n            \"Bybit\",\n            \"BitMEX\",\n            \"Deribit\",\n            \"Binance Futures\",\n            \"Chiliz\",\n            \"EXX\",\n            \"ZBG\",\n            \"BW\",\n            \"Bitstamp\",\n            \"XT\",\n            \"RightBTC\",\n            \"COINBIG\",\n            \"Bitget\",\n            \"FTX Futures\",\n            \"Bingbon\",\n            \"Covesting\",\n            \"DeversiFi\",\n            \"Indoex\",\n            \"PayBito\"\n        ],\n        \"icon_url\": \"https://static.coinpaprika.com/coin/btc-bitcoin/logo.png\",\n        \"id\": 1,\n        \"market_cap\": 1063316095588,\n        \"name\": \"Bitcoin\",\n        \"symbol\": \"BTC\",\n        \"volume\": 63704578986\n    },\n    \"Bitcoin Cash\": {\n        \"exchange_rate\": 914.52965366102,\n        \"exchanges_accepting\": [\n            \"WhiteBIT\",\n            \"QB\",\n            \"Coinbase Pro\",\n            \"Kraken\",\n            \"Binance US\",\n            \"Binance\",\n            \"ZB.COM\",\n            \"Huobi\",\n            \"Upbit\",\n            \"Gate.io\",\n            \"Bequant\",\n            \"HitBTC\",\n            \"OKEx\",\n            \"MXC\",\n            \"CEX\",\n            \"Bitstamp\",\n            \"Bitrue\",\n            \"Bitget\",\n            \"FTX Futures\",\n            \"Binance JEX (Spot)\",\n            \"Bibox\",\n            \"DragonEX\",\n            \"RightBTC\",\n            \"BitForex\",\n            \"Bit-Z\",\n            \"CoinTiger\",\n            \"BitMart\",\n            \"OceanEx\",\n            \"Bybit\",\n            \"Coinbene\",\n            \"Bingbon\",\n            \"Binance Futures\",\n            \"PayBito\",\n            \"Indoex\",\n            \"BTC-Alpha\"\n        ],\n        \"icon_url\": \"https://static.coinpaprika.com/coin/bch-bitcoin-cash/logo.png\",\n        \"id\": 10,\n        \"market_cap\": 17076689339,\n        \"name\": \"Bitcoin Cash\",\n        \"symbol\": \"BCH\",\n        \"volume\": 5346689506\n    },\n    \"Bitcoin SV\": {\n        \"exchange_rate\": 294.830911256166,\n        \"exchanges_accepting\": [\n            \"OKEx\",\n            \"Bitfinex\",\n            \"WhiteBIT\",\n            \"Upbit\",\n            \"Kucoin\",\n            \"HitBTC\",\n            \"QB\",\n            \"Bequant\",\n            \"BitMart\",\n            \"ZBG\",\n            \"ZB.COM\",\n            \"Huobi\",\n            \"FTX Futures\",\n            \"Binance JEX (Spot)\",\n            \"Coinbene\",\n            \"Bit-Z\",\n            \"BitForex\",\n            \"BW\",\n            \"MXC\",\n            \"CoinTiger\",\n            \"DragonEX\",\n            \"Bingbon\",\n            \"PayBito\",\n            \"Indoex\"\n        ],\n        \"icon_url\": \"https://static.coinpaprika.com/coin/bsv-bitcoin-sv/logo.png\",\n        \"id\": 23,\n        \"market_cap\": 5671669362,\n        \"name\": \"Bitcoin SV\",\n        \"symbol\": \"BSV\",\n        \"volume\": 1553135185\n    },\n    \"Cardano\": {\n        \"exchange_rate\": 1.203445,\n        \"exchanges_accepting\": [\n            \"Kraken\",\n            \"Binance\",\n            \"Bitfinex\",\n            \"OKEx\",\n            \"Kucoin\",\n            \"ZBG\",\n            \"BitMart\",\n            \"HitBTC\",\n            \"Bequant\",\n            \"Huobi\",\n            \"Gate.io\",\n            \"ZB.COM\",\n            \"Bitrue\",\n            \"Binance US\",\n            \"Upbit\",\n            \"Binance JEX (Spot)\",\n            \"Coinbene\",\n            \"QB\",\n            \"EXX\",\n            \"BW\",\n            \"OceanEx\",\n            \"DragonEX\",\n            \"Bingbon\",\n            \"FTX Futures\",\n            \"Binance Futures\",\n            \"IXX\",\n            \"PayBito\"\n        ],\n        \"icon_url\": \"https://static.coinpaprika.com/coin/ada-cardano/logo.png\",\n        \"id\": 7,\n        \"market_cap\": 38162671703,\n        \"name\": \"Cardano\",\n        \"symbol\": \"ADA\",\n        \"volume\": 2954589934\n    },\n    \"Chainlink\": {\n        \"exchange_rate\": 36.265880266304,\n        \"exchanges_accepting\": [\n            \"Binance\",\n            \"Bitfinex\",\n            \"OKEx\",\n            \"Coinbase Pro\",\n            \"HitBTC\",\n            \"MXC\",\n            \"WhiteBIT\",\n            \"OceanEx\",\n            \"Huobi\",\n            \"Kraken\",\n            \"Gate.io\",\n            \"Kucoin\",\n            \"EXX\",\n            \"Binance US\",\n            \"Bitrue\",\n            \"Bibox\",\n            \"Upbit\",\n            \"Coinbene\",\n            \"CoinTiger\",\n            \"BitForex\",\n            \"DragonEX\",\n            \"BitMart\",\n            \"FTX Futures\",\n            \"Bybit\",\n            \"RightBTC\",\n            \"Binance Futures\",\n            \"Bingbon\"\n        ],\n        \"icon_url\": \"https://static.coinpaprika.com/coin/link-chainlink/logo.png\",\n        \"id\": 12,\n        \"market_cap\": 13866627004,\n        \"name\": \"Chainlink\",\n        \"symbol\": \"LINK\",\n        \"volume\": 2387555334\n    },\n    \"Cosmos\": {\n        \"exchange_rate\": 19.459,\n        \"exchanges_accepting\": [\n            \"Coinbase Pro\",\n            \"OceanEx\",\n            \"Gate.io\",\n            \"Binance\",\n            \"Kraken\",\n            \"Huobi\",\n            \"Kucoin\",\n            \"Binance US\",\n            \"Bibox\",\n            \"OKEx\",\n            \"Bitfinex\",\n            \"HitBTC\",\n            \"BitForex\",\n            \"MXC\",\n            \"Upbit\",\n            \"Binance Futures\",\n            \"FTX Futures\",\n            \"Bit-Z\",\n            \"DragonEX\",\n            \"BitMart\"\n        ],\n        \"icon_url\": \"https://static.coinpaprika.com/coin/atom-cosmos/logo.png\",\n        \"id\": 24,\n        \"market_cap\": 5294804023,\n        \"name\": \"Cosmos\",\n        \"symbol\": \"ATOM\",\n        \"volume\": 641891240\n    },\n    \"Dogecoin\": {\n        \"exchange_rate\": 0.313320069081,\n        \"exchanges_accepting\": [\n            \"ZBG\",\n            \"OKEx\",\n            \"OceanEx\",\n            \"Gate.io\",\n            \"Binance\",\n            \"Upbit\",\n            \"Huobi\",\n            \"ZB.COM\",\n            \"Bit-Z\",\n            \"Binance US\",\n            \"BW\",\n            \"Kraken\",\n            \"BitForex\",\n            \"CoinTiger\",\n            \"MXC\",\n            \"HitBTC\",\n            \"BitMart\",\n            \"DragonEX\",\n            \"Bibox\",\n            \"BTC-Alpha\",\n            \"Binance Futures\",\n            \"FTX Futures\"\n        ],\n        \"icon_url\": \"https://static.coinpaprika.com/coin/doge-dogecoin/logo.png\",\n        \"id\": 6,\n        \"market_cap\": 55123877960,\n        \"name\": \"Dogecoin\",\n        \"symbol\": \"DOGE\",\n        \"volume\": 25407167197\n    },\n    \"EOS\": {\n        \"exchange_rate\": 6.333406624008,\n        \"exchanges_accepting\": [\n            \"Chiliz\",\n            \"ZB.COM\",\n            \"Binance\",\n            \"HitBTC\",\n            \"Coinbase Pro\",\n            \"OKEx\",\n            \"Bitfinex\",\n            \"Bibox\",\n            \"Bequant\",\n            \"Kraken\",\n            \"Kucoin\",\n            \"BitForex\",\n            \"Gate.io\",\n            \"BTC-Alpha\",\n            \"QB\",\n            \"Bitrue\",\n            \"Huobi\",\n            \"BitMart\",\n            \"ZBG\",\n            \"Binance US\",\n            \"OceanEx\",\n            \"Bitget\",\n            \"Upbit\",\n            \"FTX Futures\",\n            \"Coinbene\",\n            \"IXX\",\n            \"RightBTC\",\n            \"Binance JEX (Spot)\",\n            \"Bit-Z\",\n            \"EXX\",\n            \"COINBIG\",\n            \"CoinTiger\",\n            \"DragonEX\",\n            \"BW\",\n            \"Binance Futures\",\n            \"Bybit\",\n            \"Bingbon\",\n            \"PayBito\",\n            \"Covesting\"\n        ],\n        \"icon_url\": \"https://static.coinpaprika.com/coin/eos-eos/logo.png\",\n        \"id\": 21,\n        \"market_cap\": 6532950027,\n        \"name\": \"EOS\",\n        \"symbol\": \"EOS\",\n        \"volume\": 4467159338\n    },\n    \"Ethereum\": {\n        \"exchange_rate\": 2363.34149250886,\n        \"exchanges_accepting\": [\n            \"Bequant\",\n            \"HitBTC\",\n            \"Coinbase Pro\",\n            \"Bitfinex\",\n            \"Kraken\",\n            \"BitKop\",\n            \"ZBG\",\n            \"OKEx\",\n            \"QB\",\n            \"FTX (Spot)\",\n            \"BitMart\",\n            \"Kucoin\",\n            \"Binance\",\n            \"Binance US\",\n            \"Huobi\",\n            \"Gate.io\",\n            \"WhiteBIT\",\n            \"Bitrue\",\n            \"Bibox\",\n            \"MXC\",\n            \"ZB.COM\",\n            \"CEX\",\n            \"Binance JEX (Spot)\",\n            \"BitForex\",\n            \"DragonEX\",\n            \"EXX\",\n            \"Bit-Z\",\n            \"Bybit\",\n            \"Binance Futures\",\n            \"Deribit\",\n            \"XT\",\n            \"Bitstamp\",\n            \"CoinTiger\",\n            \"Chiliz\",\n            \"BW\",\n            \"RightBTC\",\n            \"Upbit\",\n            \"IXX\",\n            \"Coinbene\",\n            \"BTC-Alpha\",\n            \"COINBIG\",\n            \"OceanEx\",\n            \"Bitget\",\n            \"FTX Futures\",\n            \"Bingbon\",\n            \"DeversiFi\",\n            \"Covesting\",\n            \"Indoex\",\n            \"PayBito\"\n        ],\n        \"icon_url\": \"https://static.coinpaprika.com/coin/eth-ethereum/logo.png\",\n        \"id\": 2,\n        \"market_cap\": 254522680065,\n        \"name\": \"Ethereum\",\n        \"symbol\": \"ETH\",\n        \"volume\": 47277921016\n    },\n    \"FTX Token\": {\n        \"exchange_rate\": 50.696545734096,\n        \"exchanges_accepting\": [\n            \"FTX (Spot)\",\n            \"Binance\",\n            \"Bitfinex\",\n            \"HitBTC\",\n            \"Huobi\"\n        ],\n        \"icon_url\": \"https://static.coinpaprika.com/coin/ftt-ftx-token/logo.png\",\n        \"id\": 28,\n        \"market_cap\": 4700972375,\n        \"name\": \"FTX Token\",\n        \"symbol\": \"FTT\",\n        \"volume\": 239151812\n    },\n    \"HEX\": {\n        \"exchange_rate\": 0.016877198295,\n        \"exchanges_accepting\": [\n            \"HitBTC\",\n            \"BitMart\"\n        ],\n        \"icon_url\": \"https://static.coinpaprika.com/coin/hex-hex/logo.png\",\n        \"id\": 27,\n        \"market_cap\": 4677998956,\n        \"name\": \"HEX\",\n        \"symbol\": \"HEX\",\n        \"volume\": 9919852\n    },\n    \"Huobi Token\": {\n        \"exchange_rate\": 18.997178679191,\n        \"exchanges_accepting\": [\n            \"Coinbene\",\n            \"RightBTC\",\n            \"Bibox\",\n            \"Binance JEX (Spot)\",\n            \"BitForex\",\n            \"FTX Futures\",\n            \"EXX\",\n            \"Bit-Z\",\n            \"DragonEX\",\n            \"HitBTC\",\n            \"BitMart\",\n            \"Huobi\",\n            \"Gate.io\"\n        ],\n        \"icon_url\": \"https://static.coinpaprika.com/coin/ht-huobi-token/logo.png\",\n        \"id\": 29,\n        \"market_cap\": 4133915907,\n        \"name\": \"Huobi Token\",\n        \"symbol\": \"HT\",\n        \"volume\": 952324826\n    },\n    \"IOTA\": {\n        \"exchange_rate\": 2.04581988035,\n        \"exchanges_accepting\": [\n            \"Binance\",\n            \"Bitfinex\",\n            \"Huobi\",\n            \"Gate.io\",\n            \"OKEx\",\n            \"HitBTC\",\n            \"Binance US\",\n            \"Binance Futures\",\n            \"DragonEX\",\n            \"Bitrue\",\n            \"Upbit\",\n            \"Covesting\"\n        ],\n        \"icon_url\": \"https://static.coinpaprika.com/coin/miota-iota/logo.png\",\n        \"id\": 22,\n        \"market_cap\": 5923839465,\n        \"name\": \"IOTA\",\n        \"symbol\": \"MIOTA\",\n        \"volume\": 479620860\n    },\n    \"LUNA\": {\n        \"exchange_rate\": 13.382064831072,\n        \"exchanges_accepting\": [\n            \"Kucoin\",\n            \"Binance\",\n            \"Upbit\",\n            \"Bitrue\",\n            \"Binance Futures\"\n        ],\n        \"icon_url\": \"https://static.coinpaprika.com/coin/luna-terra/logo.png\",\n        \"id\": 25,\n        \"market_cap\": 5496183297,\n        \"name\": \"LUNA\",\n        \"symbol\": \"LUNA\",\n        \"volume\": 193595909\n    },\n    \"Litecoin\": {\n        \"exchange_rate\": 257.444366315053,\n        \"exchanges_accepting\": [\n            \"Binance\",\n            \"HitBTC\",\n            \"ZBG\",\n            \"BW\",\n            \"Gate.io\",\n            \"Bitfinex\",\n            \"Bitrue\",\n            \"Huobi\",\n            \"Coinbase Pro\",\n            \"WhiteBIT\",\n            \"MXC\",\n            \"OKEx\",\n            \"Binance US\",\n            \"Kraken\",\n            \"Bibox\",\n            \"Kucoin\",\n            \"FTX Futures\",\n            \"QB\",\n            \"Bequant\",\n            \"XT\",\n            \"Bitstamp\",\n            \"BitMart\",\n            \"BTC-Alpha\",\n            \"OceanEx\",\n            \"Upbit\",\n            \"Chiliz\",\n            \"COINBIG\",\n            \"RightBTC\",\n            \"CEX\",\n            \"IXX\",\n            \"Coinbene\",\n            \"ZB.COM\",\n            \"Bit-Z\",\n            \"CoinTiger\",\n            \"EXX\",\n            \"DragonEX\",\n            \"Bitget\",\n            \"BitForex\",\n            \"Bybit\",\n            \"Bingbon\",\n            \"Binance Futures\",\n            \"PayBito\",\n            \"Covesting\",\n            \"Indoex\",\n            \"Binance JEX (Spot)\"\n        ],\n        \"icon_url\": \"https://static.coinpaprika.com/coin/ltc-litecoin/logo.png\",\n        \"id\": 9,\n        \"market_cap\": 17979333386,\n        \"name\": \"Litecoin\",\n        \"symbol\": \"LTC\",\n        \"volume\": 8922188997\n    },\n    \"Monero\": {\n        \"exchange_rate\": 375.986694404096,\n        \"exchanges_accepting\": [\n            \"Binance\",\n            \"Huobi\",\n            \"HitBTC\",\n            \"Kraken\",\n            \"Bitfinex\",\n            \"Bitrue\",\n            \"Kucoin\",\n            \"Gate.io\",\n            \"WhiteBIT\",\n            \"ZB.COM\",\n            \"Binance Futures\",\n            \"OKEx\",\n            \"RightBTC\",\n            \"Coinbene\",\n            \"DragonEX\",\n            \"Covesting\",\n            \"Indoex\",\n            \"BTC-Alpha\"\n        ],\n        \"icon_url\": \"https://static.coinpaprika.com/coin/xmr-monero/logo.png\",\n        \"id\": 19,\n        \"market_cap\": 6481703935,\n        \"name\": \"Monero\",\n        \"symbol\": \"XMR\",\n        \"volume\": 1242098906\n    },\n    \"NEO\": {\n        \"exchange_rate\": 96.786466146926,\n        \"exchanges_accepting\": [\n            \"BW\",\n            \"Binance\",\n            \"HitBTC\",\n            \"Bequant\",\n            \"WhiteBIT\",\n            \"Bitrue\",\n            \"Kucoin\",\n            \"Bitfinex\",\n            \"Gate.io\",\n            \"Huobi\",\n            \"Bibox\",\n            \"BitMart\",\n            \"COINBIG\",\n            \"FTX Futures\",\n            \"ZB.COM\",\n            \"Bit-Z\",\n            \"OKEx\",\n            \"MXC\",\n            \"Binance US\",\n            \"Binance Futures\",\n            \"Coinbene\",\n            \"DragonEX\",\n            \"IXX\",\n            \"Binance JEX (Spot)\",\n            \"EXX\",\n            \"BitForex\",\n            \"Upbit\",\n            \"CoinTiger\",\n            \"Indoex\",\n            \"Covesting\"\n        ],\n        \"icon_url\": \"https://static.coinpaprika.com/coin/neo-neo/logo.png\",\n        \"id\": 18,\n        \"market_cap\": 8048944533,\n        \"name\": \"NEO\",\n        \"symbol\": \"NEO\",\n        \"volume\": 3818907047\n    },\n    \"OKB\": {\n        \"exchange_rate\": 17.402680702176,\n        \"exchanges_accepting\": [\n            \"Coinbene\",\n            \"OKEx\",\n            \"XT\",\n            \"HitBTC\",\n            \"BitMart\",\n            \"Gate.io\",\n            \"FTX Futures\",\n            \"IXX\",\n            \"DragonEX\",\n            \"EXX\"\n        ],\n        \"icon_url\": \"https://static.coinpaprika.com/coin/okb-okb/logo.png\",\n        \"id\": 26,\n        \"market_cap\": 4679800762,\n        \"name\": \"OKB\",\n        \"symbol\": \"OKB\",\n        \"volume\": 468472562\n    },\n    \"Polkadot\": {\n        \"exchange_rate\": 33.7856,\n        \"exchanges_accepting\": [\n            \"Kraken\",\n            \"Kucoin\",\n            \"Binance\",\n            \"Bitfinex\",\n            \"HitBTC\",\n            \"OKEx\",\n            \"Gate.io\",\n            \"CoinTiger\",\n            \"Bibox\",\n            \"BitMart\",\n            \"Huobi\",\n            \"FTX Futures\",\n            \"Binance Futures\",\n            \"BitForex\"\n        ],\n        \"icon_url\": \"https://static.coinpaprika.com/coin/dot-polkadot/logo.png\",\n        \"id\": 8,\n        \"market_cap\": 30232372364,\n        \"name\": \"Polkadot\",\n        \"symbol\": \"DOT\",\n        \"volume\": 1833924675\n    },\n    \"Stellar\": {\n        \"exchange_rate\": 0.486975,\n        \"exchanges_accepting\": [\n            \"Coinbase Pro\",\n            \"WhiteBIT\",\n            \"Binance\",\n            \"QB\",\n            \"Kucoin\",\n            \"Binance US\",\n            \"HitBTC\",\n            \"Bitrue\",\n            \"OKEx\",\n            \"CoinTiger\",\n            \"Huobi\",\n            \"Bequant\",\n            \"Kraken\",\n            \"Bitfinex\",\n            \"Gate.io\",\n            \"Upbit\",\n            \"BitMart\",\n            \"ZBG\",\n            \"OceanEx\",\n            \"ZB.COM\",\n            \"Bit-Z\",\n            \"Coinbene\",\n            \"BitForex\",\n            \"BW\",\n            \"DragonEX\",\n            \"Binance Futures\",\n            \"Covesting\"\n        ],\n        \"icon_url\": \"https://static.coinpaprika.com/coin/xlm-stellar/logo.png\",\n        \"id\": 13,\n        \"market_cap\": 11775309081,\n        \"name\": \"Stellar\",\n        \"symbol\": \"XLM\",\n        \"volume\": 1048824668\n    },\n    \"THETA\": {\n        \"exchange_rate\": 11.095027554631,\n        \"exchanges_accepting\": [\n            \"Binance\",\n            \"Huobi\",\n            \"Gate.io\",\n            \"OKEx\",\n            \"Binance Futures\",\n            \"BitMart\",\n            \"Upbit\",\n            \"FTX Futures\"\n        ],\n        \"icon_url\": \"https://static.coinpaprika.com/coin/theta-theta-token/logo.png\",\n        \"id\": 14,\n        \"market_cap\": 11094737366,\n        \"name\": \"THETA\",\n        \"symbol\": \"THETA\",\n        \"volume\": 636965832\n    },\n    \"TRON\": {\n        \"exchange_rate\": 0.123125559159,\n        \"exchanges_accepting\": [\n            \"Binance\",\n            \"Kraken\",\n            \"Bitrue\",\n            \"Bitfinex\",\n            \"Kucoin\",\n            \"OKEx\",\n            \"Upbit\",\n            \"Gate.io\",\n            \"ZBG\",\n            \"HitBTC\",\n            \"Bequant\",\n            \"BTC-Alpha\",\n            \"COINBIG\",\n            \"BitForex\",\n            \"BitMart\",\n            \"Huobi\",\n            \"ZB.COM\",\n            \"Chiliz\",\n            \"Binance JEX (Spot)\",\n            \"IXX\",\n            \"EXX\",\n            \"QB\",\n            \"Bit-Z\",\n            \"Coinbene\",\n            \"MXC\",\n            \"DragonEX\",\n            \"Bibox\",\n            \"RightBTC\",\n            \"CoinTiger\",\n            \"Bitget\",\n            \"Bingbon\",\n            \"Binance Futures\",\n            \"FTX Futures\",\n            \"Indoex\"\n        ],\n        \"icon_url\": \"https://static.coinpaprika.com/coin/trx-tron/logo.png\",\n        \"id\": 15,\n        \"market_cap\": 9541842015,\n        \"name\": \"TRON\",\n        \"symbol\": \"TRX\",\n        \"volume\": 3457650462\n    },\n    \"Tether\": {\n        \"exchange_rate\": 1.000124140199,\n        \"exchanges_accepting\": [\n            \"Bequant\",\n            \"HitBTC\",\n            \"OKEx\",\n            \"Binance\",\n            \"Huobi\",\n            \"FTX (Spot)\",\n            \"ZBG\",\n            \"Kraken\",\n            \"Chiliz\",\n            \"Bitfinex\",\n            \"CoinTiger\",\n            \"WhiteBIT\",\n            \"BW\",\n            \"Binance US\",\n            \"Gate.io\",\n            \"BitMart\",\n            \"ZB.COM\",\n            \"Kucoin\",\n            \"MXC\",\n            \"Bitrue\",\n            \"QB\",\n            \"Coinbene\",\n            \"Binance JEX (Spot)\",\n            \"Bibox\",\n            \"OceanEx\",\n            \"Upbit\",\n            \"Bit-Z\",\n            \"XT\",\n            \"BTC-Alpha\",\n            \"EXX\",\n            \"BitForex\",\n            \"DragonEX\",\n            \"COINBIG\",\n            \"Binance Futures\",\n            \"Bybit\",\n            \"FTX Futures\",\n            \"CEX\",\n            \"RightBTC\",\n            \"Bitget\",\n            \"IXX\",\n            \"BitKop\",\n            \"Bingbon\",\n            \"Indoex\",\n            \"Covesting\",\n            \"PayBito\"\n        ],\n        \"icon_url\": \"https://static.coinpaprika.com/coin/usdt-tether/logo.png\",\n        \"id\": 5,\n        \"market_cap\": 49843602771,\n        \"name\": \"Tether\",\n        \"symbol\": \"USDT\",\n        \"volume\": 143983157190\n    },\n    \"Tezos\": {\n        \"exchange_rate\": 5.324803455637,\n        \"exchanges_accepting\": [\n            \"OceanEx\",\n            \"Coinbase Pro\",\n            \"Binance\",\n            \"RightBTC\",\n            \"Bitfinex\",\n            \"BitForex\",\n            \"Kucoin\",\n            \"OKEx\",\n            \"Bitrue\",\n            \"Binance Futures\",\n            \"FTX Futures\",\n            \"Binance US\",\n            \"HitBTC\",\n            \"Kraken\",\n            \"Huobi\",\n            \"Bingbon\",\n            \"Gate.io\",\n            \"Bybit\"\n        ],\n        \"icon_url\": \"https://static.coinpaprika.com/coin/xtz-tezos/logo.png\",\n        \"id\": 30,\n        \"market_cap\": 4159531572,\n        \"name\": \"Tezos\",\n        \"symbol\": \"XTZ\",\n        \"volume\": 447955256\n    },\n    \"Uniswap\": {\n        \"exchange_rate\": 33.327248457259,\n        \"exchanges_accepting\": [\n            \"Binance\",\n            \"Bitfinex\",\n            \"Kucoin\",\n            \"Coinbase Pro\",\n            \"Kraken\",\n            \"MXC\",\n            \"FTX (Spot)\",\n            \"HitBTC\",\n            \"Bitrue\",\n            \"Huobi\",\n            \"Binance US\",\n            \"BitMart\",\n            \"OKEx\",\n            \"Binance Futures\",\n            \"FTX Futures\",\n            \"Coinbene\",\n            \"Bit-Z\",\n            \"DragonEX\",\n            \"Bibox\",\n            \"Bingbon\"\n        ],\n        \"icon_url\": \"https://static.coinpaprika.com/coin/uni-uniswap/logo.png\",\n        \"id\": 17,\n        \"market_cap\": 6742250002,\n        \"name\": \"Uniswap\",\n        \"symbol\": \"UNI\",\n        \"volume\": 1055117600\n    },\n    \"VeChain\": {\n        \"exchange_rate\": 0.224529403951,\n        \"exchanges_accepting\": [\n            \"OceanEx\",\n            \"Binance\",\n            \"Bitrue\",\n            \"HitBTC\",\n            \"Huobi\",\n            \"Binance US\",\n            \"Gate.io\",\n            \"FTX Futures\",\n            \"Kucoin\",\n            \"BitMart\",\n            \"Bitfinex\",\n            \"DragonEX\",\n            \"Binance Futures\"\n        ],\n        \"icon_url\": \"https://static.coinpaprika.com/coin/vet-vechain/logo.png\",\n        \"id\": 11,\n        \"market_cap\": 14969186227,\n        \"name\": \"VeChain\",\n        \"symbol\": \"VET\",\n        \"volume\": 2386770313\n    },\n    \"Wrapped Bitcoin\": {\n        \"exchange_rate\": 53743.5000736354,\n        \"exchanges_accepting\": [\n            \"Binance\",\n            \"OKEx\",\n            \"Coinbase Pro\",\n            \"Huobi\",\n            \"HitBTC\"\n        ],\n        \"icon_url\": \"https://static.coinpaprika.com/coin/wbtc-wrapped-bitcoin/logo.png\",\n        \"id\": 20,\n        \"market_cap\": 6418569406,\n        \"name\": \"Wrapped Bitcoin\",\n        \"symbol\": \"WBTC\",\n        \"volume\": 150533771\n    },\n    \"XRP\": {\n        \"exchange_rate\": 1.29521,\n        \"exchanges_accepting\": [\n            \"Bitstamp\",\n            \"Kraken\",\n            \"Bequant\",\n            \"ZBG\",\n            \"Binance\",\n            \"Bitrue\",\n            \"Bitfinex\",\n            \"Kucoin\",\n            \"Huobi\",\n            \"HitBTC\",\n            \"OKEx\",\n            \"ZB.COM\",\n            \"MXC\",\n            \"BitForex\",\n            \"WhiteBIT\",\n            \"BW\",\n            \"OceanEx\",\n            \"Bibox\",\n            \"Upbit\",\n            \"Bitget\",\n            \"Gate.io\",\n            \"BTC-Alpha\",\n            \"FTX Futures\",\n            \"RightBTC\",\n            \"Chiliz\",\n            \"Binance JEX (Spot)\",\n            \"QB\",\n            \"Coinbene\",\n            \"Bit-Z\",\n            \"COINBIG\",\n            \"EXX\",\n            \"IXX\",\n            \"DragonEX\",\n            \"BitMart\",\n            \"CoinTiger\",\n            \"Bingbon\",\n            \"Bybit\",\n            \"Binance Futures\",\n            \"Covesting\",\n            \"Indoex\",\n            \"Binance US\",\n            \"PayBito\"\n        ],\n        \"icon_url\": \"https://static.coinpaprika.com/coin/xrp-xrp/logo.png\",\n        \"id\": 4,\n        \"market_cap\": 61916134251,\n        \"name\": \"XRP\",\n        \"symbol\": \"XRP\",\n        \"volume\": 12863537020\n    }\n}"
				}
			]
		},
		{
			"name": "Exchanges",
			"event": [
				{
					"listen": "test",
					"script": {
						"exec": [
							"pm.test(\"Status code is 200\", function () {\r",
							"    pm.response.to.have.status(200);\r",
							"});\r",
							"\r",
							"pm.test(\"Test BTC-Alpha Length\", function () {\r",
							"    var jsonData = pm.response.json();\r",
							"    pm.expect(jsonData[\"BTC-Alpha\"][\"coins_accepted\"].length).to.eql(10);\r",
							"});\r",
							"\r",
							"pm.test(\"Test BTC-Alpha Currencies\", function () {\r",
							"    var jsonData = pm.response.json();\r",
							"    pm.expect(jsonData[\"BTC-Alpha\"][\"currencies\"]).to.eql(81);\r",
							"});\r",
							"\r",
							"pm.test(\"Response time is less than 500ms\", function () {\r",
							"    pm.expect(pm.response.responseTime).to.be.below(500);\r",
							"});"
						],
						"type": "text/javascript"
					}
				}
			],
			"request": {
				"method": "GET",
				"header": [],
				"url": {
					"raw": "{{url}}api/exchanges",
					"host": [
						"{{url}}api"
					],
					"path": [
						"exchanges"
					]
				}
			},
			"response": [
				{
					"name": "Exchanges",
					"originalRequest": {
						"method": "GET",
						"header": [],
						"url": {
							"raw": "{{url}}api/exchanges",
							"host": [
								"{{url}}api"
							],
							"path": [
								"exchanges"
							]
						}
					},
					"status": "OK",
					"code": 200,
					"_postman_previewlanguage": "json",
					"header": [
						{
							"key": "Content-Type",
							"value": "application/json"
						},
						{
							"key": "Vary",
							"value": "Accept-Encoding"
						},
						{
							"key": "Access-Control-Allow-Origin",
							"value": "*"
						},
						{
							"key": "Content-Encoding",
							"value": "gzip"
						},
						{
							"key": "X-Cloud-Trace-Context",
							"value": "4285da26dc72fd00cedfb711d5f7d82b;o=1"
						},
						{
							"key": "Date",
							"value": "Fri, 23 Apr 2021 21:24:25 GMT"
						},
						{
							"key": "Server",
							"value": "Google Frontend"
						},
						{
							"key": "Cache-Control",
							"value": "private"
						},
						{
							"key": "Content-Length",
							"value": "9475"
						}
					],
					"cookie": [],
					"body": "{\n    \"BTC-Alpha\": {\n        \"coins_accepted\": [\n            \"Bitcoin\",\n            \"Ethereum\",\n            \"XRP\",\n            \"Tether\",\n            \"Dogecoin\",\n            \"Litecoin\",\n            \"Bitcoin Cash\",\n            \"TRON\",\n            \"Monero\",\n            \"EOS\"\n        ],\n        \"currencies\": 81,\n        \"description\": \"BTC-Alpha is a cryptocurrency exchange headquartered in the United Kingdom launched in 2016. BTC-Alpha offers trading in decent number of digital coins and also supports USD fiat currency. Its trading platform is web-based with charts by TradingView.\",\n        \"icon_url\": \"https://static.coinpaprika.com/exchanges/btc-alpha/logo.png\",\n        \"id\": 40,\n        \"is_active\": true,\n        \"link\": \"https://btc-alpha.com/\",\n        \"name\": \"BTC-Alpha\",\n        \"volume\": 654164528.7809561\n    },\n    \"BW\": {\n        \"coins_accepted\": [\n            \"Bitcoin\",\n            \"Ethereum\",\n            \"XRP\",\n            \"Tether\",\n            \"Dogecoin\",\n            \"Cardano\",\n            \"Litecoin\",\n            \"Stellar\",\n            \"NEO\",\n            \"EOS\",\n            \"Bitcoin SV\"\n        ],\n        \"currencies\": 17,\n        \"description\": \"\",\n        \"icon_url\": \"https://static.coinpaprika.com/exchanges/bw/logo.png\",\n        \"id\": 3,\n        \"is_active\": true,\n        \"link\": \"https://www.bw.com/\",\n        \"name\": \"BW\",\n        \"volume\": 677281818.3008277\n    },\n    \"Bequant\": {\n        \"coins_accepted\": [\n            \"Bitcoin\",\n            \"Ethereum\",\n            \"XRP\",\n            \"Tether\",\n            \"Cardano\",\n            \"Litecoin\",\n            \"Bitcoin Cash\",\n            \"Stellar\",\n            \"TRON\",\n            \"NEO\",\n            \"EOS\",\n            \"Bitcoin SV\"\n        ],\n        \"currencies\": 22,\n        \"description\": \"BeQuant is a new cryptocurrency exchange that is promising to pioneer regulation in the sector. The team behind the exchange has stated in a recent press release that \\\"BeQuant team of FCA compliant brokers and blockchain specialists has been in the business since 2012\\\". BeQuant’s core product is partnered with established technology Multiexchange who aggregates liquidity and works with large institutions.\",\n        \"icon_url\": \"https://static.coinpaprika.com/exchanges/bequant/logo.png\",\n        \"id\": 28,\n        \"is_active\": true,\n        \"link\": \"https://bequant.io/\",\n        \"name\": \"Bequant\",\n        \"volume\": 2151288355.6939497\n    },\n    \"Bibox\": {\n        \"coins_accepted\": [\n            \"Bitcoin\",\n            \"Ethereum\",\n            \"XRP\",\n            \"Tether\",\n            \"Dogecoin\",\n            \"Polkadot\",\n            \"Litecoin\",\n            \"Bitcoin Cash\",\n            \"Chainlink\",\n            \"TRON\",\n            \"BitTorrent\",\n            \"Uniswap\",\n            \"NEO\",\n            \"EOS\",\n            \"Cosmos\",\n            \"Huobi Token\"\n        ],\n        \"currencies\": 66,\n        \"description\": \"The site has been in operation since 2017 and provides access to a wide range of coins, in addition, the site makes use of smart AI algorithms that have been designed to aid in the execution of optimal trades and transactions, and helps maximize any potential returns.\",\n        \"icon_url\": \"https://static.coinpaprika.com/exchanges/bibox/logo.png\",\n        \"id\": 13,\n        \"is_active\": true,\n        \"link\": \"https://www.bibox.com/\",\n        \"name\": \"Bibox\",\n        \"volume\": 1167189656.8198543\n    },\n    \"Binance\": {\n        \"coins_accepted\": [\n            \"Bitcoin\",\n            \"Ethereum\",\n            \"Binance Coin\",\n            \"XRP\",\n            \"Tether\",\n            \"Dogecoin\",\n            \"Cardano\",\n            \"Polkadot\",\n            \"Litecoin\",\n            \"Bitcoin Cash\",\n            \"VeChain\",\n            \"Chainlink\",\n            \"Stellar\",\n            \"THETA\",\n            \"TRON\",\n            \"BitTorrent\",\n            \"Uniswap\",\n            \"NEO\",\n            \"Monero\",\n            \"Wrapped Bitcoin\",\n            \"EOS\",\n            \"IOTA\",\n            \"Cosmos\",\n            \"LUNA\",\n            \"FTX Token\",\n            \"Tezos\"\n        ],\n        \"currencies\": 227,\n        \"description\": \"Binance is a cryptocurrency exchange founded in July 2017. The name \\\"Binance\\\" is a blend of binary and finance. It's capable of processing 1,400,000 orders per second, and support many cryptocurrencies. Led by Changpeng Zhao, Binance is of the most popular cryptocurrency exchanges, serving more than 10 million customers around the world.\",\n        \"icon_url\": \"https://static.coinpaprika.com/exchanges/binance/logo.png\",\n        \"id\": 10,\n        \"is_active\": true,\n        \"link\": \"https://www.binance.com\",\n        \"name\": \"Binance\",\n        \"volume\": 38570931843.40296\n    },\n    \"Binance Futures\": {\n        \"coins_accepted\": [\n            \"Bitcoin\",\n            \"Ethereum\",\n            \"Binance Coin\",\n            \"XRP\",\n            \"Tether\",\n            \"Dogecoin\",\n            \"Cardano\",\n            \"Polkadot\",\n            \"Litecoin\",\n            \"Bitcoin Cash\",\n            \"VeChain\",\n            \"Chainlink\",\n            \"Stellar\",\n            \"THETA\",\n            \"TRON\",\n            \"Uniswap\",\n            \"NEO\",\n            \"Monero\",\n            \"EOS\",\n            \"IOTA\",\n            \"Cosmos\",\n            \"LUNA\",\n            \"Tezos\"\n        ],\n        \"currencies\": 74,\n        \"description\": \"Binance Futures is a derivative exchange made by Binance.\",\n        \"icon_url\": \"https://static.coinpaprika.com/exchanges/binance-futures/logo.png\",\n        \"id\": 29,\n        \"is_active\": true,\n        \"link\": \"https://www.binance.com/en/futures/BTCUSDT\",\n        \"name\": \"Binance Futures\",\n        \"volume\": 26839792210.96764\n    },\n    \"Binance JEX (Spot)\": {\n        \"coins_accepted\": [\n            \"Bitcoin\",\n            \"Ethereum\",\n            \"Binance Coin\",\n            \"XRP\",\n            \"Tether\",\n            \"Cardano\",\n            \"Litecoin\",\n            \"Bitcoin Cash\",\n            \"TRON\",\n            \"NEO\",\n            \"EOS\",\n            \"Bitcoin SV\",\n            \"Huobi Token\"\n        ],\n        \"currencies\": 22,\n        \"description\": \"\",\n        \"icon_url\": \"https://static.coinpaprika.com/exchanges/binance-jex-spot/logo.png\",\n        \"id\": 14,\n        \"is_active\": true,\n        \"link\": \"https://www.jex.com/en\",\n        \"name\": \"Binance JEX (Spot)\",\n        \"volume\": 2300690537.7752714\n    },\n    \"Binance US\": {\n        \"coins_accepted\": [\n            \"Bitcoin\",\n            \"Ethereum\",\n            \"Binance Coin\",\n            \"XRP\",\n            \"Tether\",\n            \"Dogecoin\",\n            \"Cardano\",\n            \"Litecoin\",\n            \"Bitcoin Cash\",\n            \"VeChain\",\n            \"Chainlink\",\n            \"Stellar\",\n            \"Uniswap\",\n            \"NEO\",\n            \"EOS\",\n            \"IOTA\",\n            \"Cosmos\",\n            \"Tezos\"\n        ],\n        \"currencies\": 48,\n        \"description\": \"Binance US is a secure platform for users to buy, sell, and store cryptocurrencies.\",\n        \"icon_url\": \"https://static.coinpaprika.com/exchanges/binance-us/logo.png\",\n        \"id\": 38,\n        \"is_active\": true,\n        \"link\": \"https://www.binance.us/\",\n        \"name\": \"Binance US\",\n        \"volume\": 1075517510.1778197\n    },\n    \"Bingbon\": {\n        \"coins_accepted\": [\n            \"Bitcoin\",\n            \"Ethereum\",\n            \"XRP\",\n            \"Tether\",\n            \"Cardano\",\n            \"Litecoin\",\n            \"Bitcoin Cash\",\n            \"Chainlink\",\n            \"TRON\",\n            \"Uniswap\",\n            \"EOS\",\n            \"Bitcoin SV\",\n            \"Tezos\"\n        ],\n        \"currencies\": 13,\n        \"description\": \"Bingbon is a fintech company dedicated to making crypto derivatives market available and accessible to the world and enabling all participants from all walks of life to invest in a simple and transparent way. Established in 2018, Bingbon allows users to trade contracts of Cryptocurrencies, Global Indices, Forex, and Commodities for long and short positions. Bingbon is also the first crypto derivatives exchange to offer copy trading feature for users.\",\n        \"icon_url\": \"https://static.coinpaprika.com/exchanges/bingbon/logo.png\",\n        \"id\": 47,\n        \"is_active\": true,\n        \"link\": \"https://bingbon.com/\",\n        \"name\": \"Bingbon\",\n        \"volume\": 2712662817.625658\n    },\n    \"Bit-Z\": {\n        \"coins_accepted\": [\n            \"Bitcoin\",\n            \"Ethereum\",\n            \"Binance Coin\",\n            \"XRP\",\n            \"Tether\",\n            \"Dogecoin\",\n            \"Litecoin\",\n            \"Bitcoin Cash\",\n            \"Stellar\",\n            \"TRON\",\n            \"Uniswap\",\n            \"NEO\",\n            \"EOS\",\n            \"Bitcoin SV\",\n            \"Cosmos\",\n            \"Huobi Token\"\n        ],\n        \"currencies\": 61,\n        \"description\": \"Bit-Z founded in 2016 in Hong Kong, China, is one of the most popular digital assets trading exchanges. Bit-Z has established branches in 10 countries and regions including Singapore, Japan and South Korea. To keep customers secure, Bit-Z uses bank-level SSL technology.\",\n        \"icon_url\": \"https://static.coinpaprika.com/exchanges/bit-z/logo.png\",\n        \"id\": 36,\n        \"is_active\": true,\n        \"link\": \"https://www.bit-z.com\",\n        \"name\": \"Bit-Z\",\n        \"volume\": 4286537255.9011097\n    },\n    \"BitForex\": {\n        \"coins_accepted\": [\n            \"Bitcoin\",\n            \"Ethereum\",\n            \"Binance Coin\",\n            \"XRP\",\n            \"Tether\",\n            \"Dogecoin\",\n            \"Polkadot\",\n            \"Litecoin\",\n            \"Bitcoin Cash\",\n            \"Chainlink\",\n            \"Stellar\",\n            \"TRON\",\n            \"BitTorrent\",\n            \"NEO\",\n            \"EOS\",\n            \"Bitcoin SV\",\n            \"Cosmos\",\n            \"Huobi Token\",\n            \"Tezos\"\n        ],\n        \"currencies\": 78,\n        \"description\": \"BitForex is an cryptocurrency exchange, providing a variety of crypto-currency trading pairs against USDT.\\r\\nThe company is headquartered in Singapore, registered in the Republic of Seychelles, has independent operating teams in Germany, Estonia, Hong Kong, Malaysia, the Philippines, other countries and regions.\",\n        \"icon_url\": \"https://static.coinpaprika.com/exchanges/bitforex/logo.png\",\n        \"id\": 18,\n        \"is_active\": true,\n        \"link\": \"https://www.bitforex.com/\",\n        \"name\": \"BitForex\",\n        \"volume\": 5203344801.032169\n    },\n    \"BitKop\": {\n        \"coins_accepted\": [\n            \"Bitcoin\",\n            \"Ethereum\",\n            \"Tether\"\n        ],\n        \"currencies\": 3,\n        \"description\": \"The BitKop cryptocurrency exchange has over 200,000 registered users. Out of these, 40% use the platform’s native digital currency, KOP coin. The BitKop project understands that security in the blockchain sector requires the efforts of all stakeholders. To this end, the platform strives to ensure that it only admits genuine participants to its ecosystems.\",\n        \"icon_url\": \"https://static.coinpaprika.com/exchanges/bitkop/logo.png\",\n        \"id\": 31,\n        \"is_active\": true,\n        \"link\": \"https://www.bitkop.com/\",\n        \"name\": \"BitKop\",\n        \"volume\": 2894088219.201821\n    },\n    \"BitMEX\": {\n        \"coins_accepted\": [\n            \"Bitcoin\"\n        ],\n        \"currencies\": 1,\n        \"description\": \"BitMEX is a Peer-to-Peer Trading Platform that offers leveraged contracts that are bought and sold in Bitcoin. Founded by HDR Global Trading Limited in 2014 is operating in Hong Kong and registered in the Seychelles.\",\n        \"icon_url\": \"https://static.coinpaprika.com/exchanges/bitmex/logo.png\",\n        \"id\": 27,\n        \"is_active\": true,\n        \"link\": \"https://www.bitmex.com\",\n        \"name\": \"BitMEX\",\n        \"volume\": 2438718526.999755\n    },\n    \"BitMart\": {\n        \"coins_accepted\": [\n            \"Bitcoin\",\n            \"Ethereum\",\n            \"Binance Coin\",\n            \"XRP\",\n            \"Tether\",\n            \"Dogecoin\",\n            \"Cardano\",\n            \"Polkadot\",\n            \"Litecoin\",\n            \"Bitcoin Cash\",\n            \"VeChain\",\n            \"Chainlink\",\n            \"Stellar\",\n            \"THETA\",\n            \"TRON\",\n            \"BitTorrent\",\n            \"Uniswap\",\n            \"NEO\",\n            \"EOS\",\n            \"Bitcoin SV\",\n            \"Cosmos\",\n            \"OKB\",\n            \"HEX\",\n            \"Huobi Token\"\n        ],\n        \"currencies\": 105,\n        \"description\": \"BitMart is a premier global digital asset trading platform that launched in 2017. Headquartered in the Cayman Islands, featuring branch offices in the United States, China, and South Korea, BitMart currently offers crypto-to-crypto trading for coins and utility tokens only, and serving over 500.000 customers over 180 countries.\",\n        \"icon_url\": \"https://static.coinpaprika.com/exchanges/bitmart/logo.png\",\n        \"id\": 42,\n        \"is_active\": true,\n        \"link\": \"http://www.bitmart.com\",\n        \"name\": \"BitMart\",\n        \"volume\": 667457922.2125233\n    },\n    \"Bitfinex\": {\n        \"coins_accepted\": [\n            \"Bitcoin\",\n            \"Ethereum\",\n            \"XRP\",\n            \"Tether\",\n            \"Cardano\",\n            \"Polkadot\",\n            \"Litecoin\",\n            \"VeChain\",\n            \"Chainlink\",\n            \"Stellar\",\n            \"TRON\",\n            \"BitTorrent\",\n            \"Uniswap\",\n            \"NEO\",\n            \"Monero\",\n            \"EOS\",\n            \"IOTA\",\n            \"Bitcoin SV\",\n            \"Cosmos\",\n            \"FTX Token\",\n            \"Tezos\"\n        ],\n        \"currencies\": 95,\n        \"description\": \"Bitfinex was founded in December 2012 as a peer-to-peer Bitcoin exchange, offering digital asset trading services to users around the world. Bitfinex initially started as a P2P margin lending platform for Bitcoin and later added support for more cryptocurrencies.\",\n        \"icon_url\": \"https://static.coinpaprika.com/exchanges/bitfinex/logo.png\",\n        \"id\": 12,\n        \"is_active\": true,\n        \"link\": \"https://bitfinex.com\",\n        \"name\": \"Bitfinex\",\n        \"volume\": 1564442721.3720748\n    },\n    \"Bitget\": {\n        \"coins_accepted\": [\n            \"Bitcoin\",\n            \"Ethereum\",\n            \"XRP\",\n            \"Tether\",\n            \"Litecoin\",\n            \"Bitcoin Cash\",\n            \"TRON\",\n            \"EOS\"\n        ],\n        \"currencies\": 9,\n        \"description\": \"Bitget is the first cryptocurrency exchange to introduce both forward and reverse contract. It offers the most cryptocurrency variety for forward contract and we have been though many extreme market volatility conditions without server crashing. Up to date, the number of registered users has exceeded 785,000.\",\n        \"icon_url\": \"https://static.coinpaprika.com/exchanges/bitget/logo.png\",\n        \"id\": 22,\n        \"is_active\": true,\n        \"link\": \"https://www.bitget.com/\",\n        \"name\": \"Bitget\",\n        \"volume\": 680965149.0873588\n    },\n    \"Bitrue\": {\n        \"coins_accepted\": [\n            \"Bitcoin\",\n            \"Ethereum\",\n            \"Binance Coin\",\n            \"XRP\",\n            \"Tether\",\n            \"Cardano\",\n            \"Litecoin\",\n            \"Bitcoin Cash\",\n            \"VeChain\",\n            \"Chainlink\",\n            \"Stellar\",\n            \"TRON\",\n            \"BitTorrent\",\n            \"Uniswap\",\n            \"NEO\",\n            \"Monero\",\n            \"EOS\",\n            \"IOTA\",\n            \"LUNA\",\n            \"Tezos\"\n        ],\n        \"currencies\": 78,\n        \"description\": \"Bitrue is one of the many cryptocurrency exchanges from Singapore. It launched in July 2018. Bitrue supports trading in a decent number of cryptocurrencies but does not accept any deposits of fiat currency.\",\n        \"icon_url\": \"https://static.coinpaprika.com/exchanges/bitrue/logo.png\",\n        \"id\": 26,\n        \"is_active\": true,\n        \"link\": \"https://www.bitrue.com/\",\n        \"name\": \"Bitrue\",\n        \"volume\": 1206927805.2305076\n    },\n    \"Bitstamp\": {\n        \"coins_accepted\": [\n            \"Bitcoin\",\n            \"Ethereum\",\n            \"XRP\",\n            \"Litecoin\",\n            \"Bitcoin Cash\"\n        ],\n        \"currencies\": 5,\n        \"description\": \"Bitstamp is a bitcoin exchange based in London. It allows trading between USD currency and bitcoin cryptocurrency. It allows USD, EUR, bitcoin, litecoin, ethereum, ripple or bitcoin cash deposits and withdrawals.\",\n        \"icon_url\": \"https://static.coinpaprika.com/exchanges/bitstamp/logo.png\",\n        \"id\": 9,\n        \"is_active\": true,\n        \"link\": \"https://www.bitstamp.net\",\n        \"name\": \"Bitstamp\",\n        \"volume\": 845257513.736313\n    },\n    \"Bybit\": {\n        \"coins_accepted\": [\n            \"Bitcoin\",\n            \"Ethereum\",\n            \"XRP\",\n            \"Tether\",\n            \"Litecoin\",\n            \"Bitcoin Cash\",\n            \"Chainlink\",\n            \"EOS\",\n            \"Tezos\"\n        ],\n        \"currencies\": 9,\n        \"description\": \"\",\n        \"icon_url\": \"https://static.coinpaprika.com/exchanges/bybit-ex/logo.png\",\n        \"id\": 50,\n        \"is_active\": true,\n        \"link\": \"https://www.bybit.com/en-US\",\n        \"name\": \"Bybit\",\n        \"volume\": 7171509586.99705\n    },\n    \"CEX\": {\n        \"coins_accepted\": [\n            \"Bitcoin\",\n            \"Ethereum\",\n            \"Tether\",\n            \"Litecoin\",\n            \"Bitcoin Cash\"\n        ],\n        \"currencies\": 7,\n        \"description\": \"\",\n        \"icon_url\": \"https://static.coinpaprika.com/exchanges/cex/logo.png\",\n        \"id\": 32,\n        \"is_active\": true,\n        \"link\": \"https://www.cex.com/\",\n        \"name\": \"CEX\",\n        \"volume\": 4695749413.978964\n    },\n    \"COINBIG\": {\n        \"coins_accepted\": [\n            \"Bitcoin\",\n            \"Ethereum\",\n            \"XRP\",\n            \"Tether\",\n            \"Litecoin\",\n            \"TRON\",\n            \"NEO\",\n            \"EOS\"\n        ],\n        \"currencies\": 8,\n        \"description\": \"COIBIG is an innovative “community of eco-autonomous digital asset trading platform” registered in New Zealand. We are the devout believers in the core ideas of bitcoin and blockchain. The core members of the team are top-level elite teams from world-renowned companies, technology finance and blockchain community operations, and also former OKcoin founders and operators.\",\n        \"icon_url\": \"https://static.coinpaprika.com/exchanges/coinbig/logo.png\",\n        \"id\": 23,\n        \"is_active\": true,\n        \"link\": \"https://www.coinbig.com/index.html\",\n        \"name\": \"COINBIG\",\n        \"volume\": 855654866.907008\n    },\n    \"Chiliz\": {\n        \"coins_accepted\": [\n            \"Bitcoin\",\n            \"Ethereum\",\n            \"XRP\",\n            \"Tether\",\n            \"Litecoin\",\n            \"TRON\",\n            \"EOS\"\n        ],\n        \"currencies\": 14,\n        \"description\": \"\",\n        \"icon_url\": \"https://static.coinpaprika.com/exchanges/chiliz/logo.png\",\n        \"id\": 1,\n        \"is_active\": true,\n        \"link\": \"https://www.chiliz.net/\",\n        \"name\": \"Chiliz\",\n        \"volume\": 4248536955.7662644\n    },\n    \"CoinTiger\": {\n        \"coins_accepted\": [\n            \"Bitcoin\",\n            \"Ethereum\",\n            \"Binance Coin\",\n            \"XRP\",\n            \"Tether\",\n            \"Dogecoin\",\n            \"Polkadot\",\n            \"Litecoin\",\n            \"Bitcoin Cash\",\n            \"Chainlink\",\n            \"Stellar\",\n            \"TRON\",\n            \"BitTorrent\",\n            \"NEO\",\n            \"EOS\",\n            \"Bitcoin SV\"\n        ],\n        \"currencies\": 116,\n        \"description\": \"CoinTiger is a centralized Singapore exchange. They created their own coin - Tiger Cash which is a blockchain digital asset based on Ethereum.\",\n        \"icon_url\": \"https://static.coinpaprika.com/exchanges/cointiger/logo.png\",\n        \"id\": 5,\n        \"is_active\": true,\n        \"link\": \"https://www.cointiger.pro\",\n        \"name\": \"CoinTiger\",\n        \"volume\": 852454895.9742426\n    },\n    \"Coinbase Pro\": {\n        \"coins_accepted\": [\n            \"Bitcoin\",\n            \"Ethereum\",\n            \"Litecoin\",\n            \"Bitcoin Cash\",\n            \"Chainlink\",\n            \"Stellar\",\n            \"Uniswap\",\n            \"Wrapped Bitcoin\",\n            \"EOS\",\n            \"Cosmos\",\n            \"Tezos\"\n        ],\n        \"currencies\": 42,\n        \"description\": \"Founded in June of 2012, Coinbase is a digital currency wallet and exchange where merchants and consumers can transact with new digital currencies like bitcoin, ethereum, and litecoin. They're based in San Francisco, California.\\r\\nCoinbase Pro (previously: GDAX) is a professional trading platform targeted for traders.\",\n        \"icon_url\": \"https://static.coinpaprika.com/exchanges/coinbase-pro/logo.png\",\n        \"id\": 7,\n        \"is_active\": true,\n        \"link\": \"https://pro.coinbase.com\",\n        \"name\": \"Coinbase Pro\",\n        \"volume\": 3175595413.524627\n    },\n    \"Coinbene\": {\n        \"coins_accepted\": [\n            \"Bitcoin\",\n            \"Ethereum\",\n            \"XRP\",\n            \"Tether\",\n            \"Cardano\",\n            \"Litecoin\",\n            \"Bitcoin Cash\",\n            \"Chainlink\",\n            \"Stellar\",\n            \"TRON\",\n            \"Uniswap\",\n            \"NEO\",\n            \"Monero\",\n            \"EOS\",\n            \"Bitcoin SV\",\n            \"OKB\",\n            \"Huobi Token\"\n        ],\n        \"currencies\": 59,\n        \"description\": \"CoinBene is open to users around the world and offers several different languages, making it possible for most people to use the website in a language that they are fluent in. The address for CoinBene is located in Singapore at 1 Coleman St., The Adelphi.\",\n        \"icon_url\": \"https://static.coinpaprika.com/exchanges/coinbene/logo.png\",\n        \"id\": 8,\n        \"is_active\": true,\n        \"link\": \"https://www.coinbene.com/\",\n        \"name\": \"Coinbene\",\n        \"volume\": 7350869798.905466\n    },\n    \"Covesting\": {\n        \"coins_accepted\": [\n            \"Bitcoin\",\n            \"Ethereum\",\n            \"XRP\",\n            \"Tether\",\n            \"Litecoin\",\n            \"Stellar\",\n            \"NEO\",\n            \"Monero\",\n            \"EOS\",\n            \"IOTA\"\n        ],\n        \"currencies\": 15,\n        \"description\": \"Covesting is a fully licensed digital asset exchange and trading platform, offering a variety of features for both beginners and professional traders.\",\n        \"icon_url\": \"https://static.coinpaprika.com/exchanges/covesting/logo.png\",\n        \"id\": 15,\n        \"is_active\": true,\n        \"link\": \"https://covesting.io\",\n        \"name\": \"Covesting\",\n        \"volume\": 1081490277.239017\n    },\n    \"Deribit\": {\n        \"coins_accepted\": [\n            \"Bitcoin\",\n            \"Ethereum\"\n        ],\n        \"currencies\": 2,\n        \"description\": \"Deribit is live since June 2016 after several years of development. John Jansen, the original founder teamed up with Marius Jansen, Sebastian Smyczýnski and Andrew Yanovsky. Deribit started as a Bitcoin Futures and Options trading platform going live in the summer of 2016.\\r\\n\\r\\nDeribit has been created as an answer to those in search of a professional fully dedicated cryptocurrencies futures and options trading platform. A service that can create a fully liquid marketplace with the same standards as a traditional derivatives market.\",\n        \"icon_url\": \"https://static.coinpaprika.com/exchanges/deribit/logo.png\",\n        \"id\": 45,\n        \"is_active\": true,\n        \"link\": \"https://www.deribit.com/\",\n        \"name\": \"Deribit\",\n        \"volume\": 1751391741.0001426\n    },\n    \"DeversiFi\": {\n        \"coins_accepted\": [\n            \"Bitcoin\",\n            \"Ethereum\"\n        ],\n        \"currencies\": 49,\n        \"description\": \"DeversiFi gives traders ​the edge​ in fast-moving decentralised finance (DeFi) markets by allowing them to ​trade at lightning speed​ and ​with deep aggregated liquidity​, directly from their privately owned cryptocurrency wallet. DeversiFi was built with serious traders in mind and is a high-speed, self-custodial exchange allowing for 9,000+ tps and privacy-by-default, meaning traders can enjoy a speed and security advantage without sacrificing any of the corner-stones of profitable trading. With the exchange's native Nectar (NEC) token, DeversiFi traders can enjoy fee discounts of up 20% and membership in Nectar DAO (controlling 17,000 ETH).\",\n        \"icon_url\": \"https://static.coinpaprika.com/exchanges/deversifi/logo.png\",\n        \"id\": 30,\n        \"is_active\": true,\n        \"link\": \"https://deversifi.com/\",\n        \"name\": \"DeversiFi\",\n        \"volume\": 893625516.3481225\n    },\n    \"DragonEX\": {\n        \"coins_accepted\": [\n            \"Bitcoin\",\n            \"Ethereum\",\n            \"Binance Coin\",\n            \"XRP\",\n            \"Tether\",\n            \"Dogecoin\",\n            \"Cardano\",\n            \"Litecoin\",\n            \"Bitcoin Cash\",\n            \"VeChain\",\n            \"Chainlink\",\n            \"Stellar\",\n            \"TRON\",\n            \"BitTorrent\",\n            \"Uniswap\",\n            \"NEO\",\n            \"Monero\",\n            \"EOS\",\n            \"IOTA\",\n            \"Bitcoin SV\",\n            \"Cosmos\",\n            \"OKB\",\n            \"Huobi Token\"\n        ],\n        \"currencies\": 93,\n        \"description\": \"They were the first trading platform to introduce a dividend token, known as Dragon Token and they guaranteed that they would distribute all of the commission income from the daily transactions.\",\n        \"icon_url\": \"https://static.coinpaprika.com/exchanges/dragonex/logo.png\",\n        \"id\": 37,\n        \"is_active\": true,\n        \"link\": \"https://dragonex.io\",\n        \"name\": \"DragonEX\",\n        \"volume\": 918075898.1876341\n    },\n    \"EXX\": {\n        \"coins_accepted\": [\n            \"Bitcoin\",\n            \"Ethereum\",\n            \"Binance Coin\",\n            \"XRP\",\n            \"Tether\",\n            \"Cardano\",\n            \"Litecoin\",\n            \"Chainlink\",\n            \"TRON\",\n            \"NEO\",\n            \"EOS\",\n            \"OKB\",\n            \"Huobi Token\"\n        ],\n        \"currencies\": 38,\n        \"description\": \"EXX is a Hong Kong based cryptocurrency exchange. They are mostly focused on the Southeast Asian Market, but also have an English version of the website. This, along with some of their trading conditions makes them a potential candidate for future global dominance.\",\n        \"icon_url\": \"https://static.coinpaprika.com/exchanges/exx/logo.png\",\n        \"id\": 34,\n        \"is_active\": true,\n        \"link\": \"https://www.exx.com/\",\n        \"name\": \"EXX\",\n        \"volume\": 1469947265.1971042\n    },\n    \"FTX (Spot)\": {\n        \"coins_accepted\": [\n            \"Bitcoin\",\n            \"Ethereum\",\n            \"Binance Coin\",\n            \"Tether\",\n            \"Uniswap\",\n            \"FTX Token\"\n        ],\n        \"currencies\": 22,\n        \"description\": \"FTX is a cryptocurrency derivatives exchange built by traders, for traders.  They strive to build a platform powerful enough for professional trading firms and intuitive enough for first-time users.\",\n        \"icon_url\": \"https://static.coinpaprika.com/exchanges/ftx/logo.png\",\n        \"id\": 2,\n        \"is_active\": true,\n        \"link\": \"https://ftx.com\",\n        \"name\": \"FTX (Spot)\",\n        \"volume\": 1517802711.1141047\n    },\n    \"FTX Futures\": {\n        \"coins_accepted\": [\n            \"Bitcoin\",\n            \"Ethereum\",\n            \"Binance Coin\",\n            \"XRP\",\n            \"Tether\",\n            \"Dogecoin\",\n            \"Cardano\",\n            \"Polkadot\",\n            \"Litecoin\",\n            \"Bitcoin Cash\",\n            \"VeChain\",\n            \"Chainlink\",\n            \"THETA\",\n            \"TRON\",\n            \"Uniswap\",\n            \"NEO\",\n            \"EOS\",\n            \"Bitcoin SV\",\n            \"Cosmos\",\n            \"OKB\",\n            \"Huobi Token\",\n            \"Tezos\"\n        ],\n        \"currencies\": 51,\n        \"description\": \"FTX is a cryptocurrency derivatives exchange built by traders, for traders. They strive to build a platform powerful enough for professional trading firms and intuitive enough for first-time users.\",\n        \"icon_url\": \"https://static.coinpaprika.com/exchanges/ftx-futures/logo.png\",\n        \"id\": 33,\n        \"is_active\": true,\n        \"link\": \"https://ftx.com/\",\n        \"name\": \"FTX Futures\",\n        \"volume\": 11503173395.042665\n    },\n    \"Gate.io\": {\n        \"coins_accepted\": [\n            \"Bitcoin\",\n            \"Ethereum\",\n            \"Binance Coin\",\n            \"XRP\",\n            \"Tether\",\n            \"Dogecoin\",\n            \"Cardano\",\n            \"Polkadot\",\n            \"Litecoin\",\n            \"Bitcoin Cash\",\n            \"VeChain\",\n            \"Chainlink\",\n            \"Stellar\",\n            \"THETA\",\n            \"TRON\",\n            \"BitTorrent\",\n            \"NEO\",\n            \"Monero\",\n            \"EOS\",\n            \"IOTA\",\n            \"Cosmos\",\n            \"OKB\",\n            \"Huobi Token\",\n            \"Tezos\"\n        ],\n        \"currencies\": 246,\n        \"description\": \"Gate.io is a cryptocurrency exchange platform that started in 2017; the site is available in both English and Chinese and provides access to a wide range of cryptocurrencies. The team behind the exchange utilize both cold storage and a hot wallet in order to store funds and client accounts are secured by using two factor authentication and a combination of passwords.\",\n        \"icon_url\": \"https://static.coinpaprika.com/exchanges/gateio/logo.png\",\n        \"id\": 48,\n        \"is_active\": true,\n        \"link\": \"https://www.gate.io/\",\n        \"name\": \"Gate.io\",\n        \"volume\": 730764831.0956035\n    },\n    \"HitBTC\": {\n        \"coins_accepted\": [\n            \"Bitcoin\",\n            \"Ethereum\",\n            \"Binance Coin\",\n            \"XRP\",\n            \"Tether\",\n            \"Dogecoin\",\n            \"Cardano\",\n            \"Polkadot\",\n            \"Litecoin\",\n            \"Bitcoin Cash\",\n            \"VeChain\",\n            \"Chainlink\",\n            \"Stellar\",\n            \"TRON\",\n            \"BitTorrent\",\n            \"Uniswap\",\n            \"NEO\",\n            \"Monero\",\n            \"Wrapped Bitcoin\",\n            \"EOS\",\n            \"IOTA\",\n            \"Bitcoin SV\",\n            \"Cosmos\",\n            \"OKB\",\n            \"HEX\",\n            \"FTX Token\",\n            \"Huobi Token\",\n            \"Tezos\"\n        ],\n        \"currencies\": 345,\n        \"description\": \"HitBTC is the world’s most advanced cryptocurrency exchange. Created by outstanding technical minds, high-level finance professionals and experienced traders, HitBTC is delivering the most reliable, fast and powerful platform solution on the market. The platform has earned its reputation for fault-tolerance, flawless uptime and high availability. Its core matching engine is among the best technological products in its class, offering traders a wide range of features such as real-time clearing and cutting-edge order matching algorithms.\",\n        \"icon_url\": \"https://static.coinpaprika.com/exchanges/hitbtc/logo.png\",\n        \"id\": 39,\n        \"is_active\": true,\n        \"link\": \"https://hitbtc.com\",\n        \"name\": \"HitBTC\",\n        \"volume\": 4045630428.1366825\n    },\n    \"Huobi\": {\n        \"coins_accepted\": [\n            \"Bitcoin\",\n            \"Ethereum\",\n            \"XRP\",\n            \"Tether\",\n            \"Dogecoin\",\n            \"Cardano\",\n            \"Polkadot\",\n            \"Litecoin\",\n            \"Bitcoin Cash\",\n            \"VeChain\",\n            \"Chainlink\",\n            \"Stellar\",\n            \"THETA\",\n            \"TRON\",\n            \"BitTorrent\",\n            \"Uniswap\",\n            \"NEO\",\n            \"Monero\",\n            \"Wrapped Bitcoin\",\n            \"EOS\",\n            \"IOTA\",\n            \"Bitcoin SV\",\n            \"Cosmos\",\n            \"FTX Token\",\n            \"Huobi Token\",\n            \"Tezos\"\n        ],\n        \"currencies\": 247,\n        \"description\": \"Huobi is a Singapore-based cryptocurrency exchange. Established in China in 2013.\\r\\n\\r\\nHuobi Group has been financed by ZhenFund and Sequoia Capital. Its accumulative turnover has exceeded 1.2 trillion USD. It has established compliance service teams in Singapore, Japan, South Korea, United Kingdom, Australia, Canada, Brazil and Hong Kong to deliver its secure and credible digital asset trading and asset management services to millions of users in over 130 countries.\",\n        \"icon_url\": \"https://static.coinpaprika.com/exchanges/huobi/logo.png\",\n        \"id\": 46,\n        \"is_active\": true,\n        \"link\": \"https://www.hbg.com/en-us/\",\n        \"name\": \"Huobi\",\n        \"volume\": 10269798967.932917\n    },\n    \"IXX\": {\n        \"coins_accepted\": [\n            \"Ethereum\",\n            \"XRP\",\n            \"Tether\",\n            \"Cardano\",\n            \"Litecoin\",\n            \"TRON\",\n            \"NEO\",\n            \"EOS\",\n            \"OKB\"\n        ],\n        \"currencies\": 12,\n        \"description\": \"\",\n        \"icon_url\": \"https://static.coinpaprika.com/exchanges/ixx/logo.png\",\n        \"id\": 21,\n        \"is_active\": true,\n        \"link\": \"https://ixx.com/\",\n        \"name\": \"IXX\",\n        \"volume\": 10391219151.970388\n    },\n    \"Indoex\": {\n        \"coins_accepted\": [\n            \"Bitcoin\",\n            \"Ethereum\",\n            \"Binance Coin\",\n            \"XRP\",\n            \"Tether\",\n            \"Litecoin\",\n            \"Bitcoin Cash\",\n            \"TRON\",\n            \"NEO\",\n            \"Monero\",\n            \"Bitcoin SV\"\n        ],\n        \"currencies\": 26,\n        \"description\": \"IndoEx Exchange claims to be the safest, fastest digital asset exchange\",\n        \"icon_url\": \"https://static.coinpaprika.com/exchanges/indoex/logo.png\",\n        \"id\": 6,\n        \"is_active\": true,\n        \"link\": \"https://indoex.io/\",\n        \"name\": \"Indoex\",\n        \"volume\": 1500598063.6179016\n    },\n    \"Kraken\": {\n        \"coins_accepted\": [\n            \"Bitcoin\",\n            \"Ethereum\",\n            \"XRP\",\n            \"Tether\",\n            \"Dogecoin\",\n            \"Cardano\",\n            \"Polkadot\",\n            \"Litecoin\",\n            \"Bitcoin Cash\",\n            \"Chainlink\",\n            \"Stellar\",\n            \"TRON\",\n            \"Uniswap\",\n            \"Monero\",\n            \"EOS\",\n            \"Cosmos\",\n            \"Tezos\"\n        ],\n        \"currencies\": 49,\n        \"description\": \"Founded in 2011, Kraken Digital Asset Exchange is one of the world’s oldest bitcoin exchanges with the widest selection of digital assets and national currencies. Based in San Francisco with offices around the world.\",\n        \"icon_url\": \"https://static.coinpaprika.com/exchanges/kraken/logo.png\",\n        \"id\": 41,\n        \"is_active\": true,\n        \"link\": \"https://www.kraken.com\",\n        \"name\": \"Kraken\",\n        \"volume\": 1997344375.199591\n    },\n    \"Kucoin\": {\n        \"coins_accepted\": [\n            \"Bitcoin\",\n            \"Ethereum\",\n            \"Binance Coin\",\n            \"XRP\",\n            \"Tether\",\n            \"Cardano\",\n            \"Polkadot\",\n            \"Litecoin\",\n            \"VeChain\",\n            \"Chainlink\",\n            \"Stellar\",\n            \"TRON\",\n            \"BitTorrent\",\n            \"Uniswap\",\n            \"NEO\",\n            \"Monero\",\n            \"EOS\",\n            \"Bitcoin SV\",\n            \"Cosmos\",\n            \"LUNA\",\n            \"Tezos\"\n        ],\n        \"currencies\": 194,\n        \"description\": \"Kucoin was founded by a group with a passion for the blockchain who had already built up strong reputations at industry giants, such as GF Securities, Ant Financial, Youling, Jianbang Communication, and iBOX PAY. To put Kucoin’s youth into perspective, the research and development team was only assembled in May 2017.\",\n        \"icon_url\": \"https://static.coinpaprika.com/exchanges/kucoin/logo.png\",\n        \"id\": 20,\n        \"is_active\": true,\n        \"link\": \"https://www.kucoin.com?rcode=yyxsyd&rcode=yyxsyd&rcode=yyxsyd\",\n        \"name\": \"Kucoin\",\n        \"volume\": 1601298195.0614617\n    },\n    \"MXC\": {\n        \"coins_accepted\": [\n            \"Bitcoin\",\n            \"Ethereum\",\n            \"Binance Coin\",\n            \"XRP\",\n            \"Tether\",\n            \"Dogecoin\",\n            \"Litecoin\",\n            \"Bitcoin Cash\",\n            \"Chainlink\",\n            \"TRON\",\n            \"BitTorrent\",\n            \"Uniswap\",\n            \"NEO\",\n            \"Bitcoin SV\",\n            \"Cosmos\"\n        ],\n        \"currencies\": 66,\n        \"description\": \"MXC exchange is a world-famous exchange platform. We aim at providing Secure, Convenient, Smart blockchain asset trading service, covering the market and price of cryptocurrencies including BTC, LTC, ETH, ETC etc.\",\n        \"icon_url\": \"https://static.coinpaprika.com/exchanges/mxc/logo.png\",\n        \"id\": 49,\n        \"is_active\": true,\n        \"link\": \"https://www.mxc.com\",\n        \"name\": \"MXC\",\n        \"volume\": 682915866.9292544\n    },\n    \"OKEx\": {\n        \"coins_accepted\": [\n            \"Bitcoin\",\n            \"Ethereum\",\n            \"XRP\",\n            \"Tether\",\n            \"Dogecoin\",\n            \"Cardano\",\n            \"Polkadot\",\n            \"Litecoin\",\n            \"Bitcoin Cash\",\n            \"Chainlink\",\n            \"Stellar\",\n            \"THETA\",\n            \"TRON\",\n            \"BitTorrent\",\n            \"Uniswap\",\n            \"NEO\",\n            \"Monero\",\n            \"Wrapped Bitcoin\",\n            \"EOS\",\n            \"IOTA\",\n            \"Bitcoin SV\",\n            \"Cosmos\",\n            \"OKB\",\n            \"Tezos\"\n        ],\n        \"currencies\": 103,\n        \"description\": \"OKEx is a Malta based world-leading digital asset exchange, providing advanced financial services to global traders by using blockchain technology. OKEx is also one of the top digital asset exchanges in the world by trading volume, serving over 20 million customers in over 100 countries. Its BTC futures trade also has nearly $1.5B of volume daily, and is widely recognized as the gold standard for the industry. \",\n        \"icon_url\": \"https://static.coinpaprika.com/exchanges/okex/logo.png\",\n        \"id\": 24,\n        \"is_active\": true,\n        \"link\": \"https://www.okex.com\",\n        \"name\": \"OKEx\",\n        \"volume\": 7497464710.37862\n    },\n    \"OceanEx\": {\n        \"coins_accepted\": [\n            \"Bitcoin\",\n            \"Ethereum\",\n            \"Binance Coin\",\n            \"XRP\",\n            \"Tether\",\n            \"Dogecoin\",\n            \"Cardano\",\n            \"Litecoin\",\n            \"Bitcoin Cash\",\n            \"VeChain\",\n            \"Chainlink\",\n            \"Stellar\",\n            \"EOS\",\n            \"Cosmos\",\n            \"Tezos\"\n        ],\n        \"currencies\": 31,\n        \"description\": \"\",\n        \"icon_url\": \"https://static.coinpaprika.com/exchanges/oceanex/logo.png\",\n        \"id\": 4,\n        \"is_active\": true,\n        \"link\": \"https://oceanex.pro/\",\n        \"name\": \"OceanEx\",\n        \"volume\": 664639261.4448777\n    },\n    \"PayBito\": {\n        \"coins_accepted\": [\n            \"Bitcoin\",\n            \"Ethereum\",\n            \"XRP\",\n            \"Tether\",\n            \"Cardano\",\n            \"Litecoin\",\n            \"Bitcoin Cash\",\n            \"EOS\",\n            \"Bitcoin SV\"\n        ],\n        \"currencies\": 10,\n        \"description\": \"\",\n        \"icon_url\": \"https://static.coinpaprika.com/exchanges/paybito/logo.png\",\n        \"id\": 43,\n        \"is_active\": true,\n        \"link\": \"https://www.paybito.com\",\n        \"name\": \"PayBito\",\n        \"volume\": 1598783976.3935401\n    },\n    \"QB\": {\n        \"coins_accepted\": [\n            \"Bitcoin\",\n            \"Ethereum\",\n            \"XRP\",\n            \"Tether\",\n            \"Cardano\",\n            \"Litecoin\",\n            \"Bitcoin Cash\",\n            \"Stellar\",\n            \"TRON\",\n            \"EOS\",\n            \"Bitcoin SV\"\n        ],\n        \"currencies\": 19,\n        \"description\": \"QB is registered in the UK, aiming as a global high-quality digital asset trading platform, and the core team members have many years of experience in trading system development, security, and blockchain. Currently, QB holds Canadian digital asset trading license.\",\n        \"icon_url\": \"https://static.coinpaprika.com/exchanges/qb/logo.png\",\n        \"id\": 35,\n        \"is_active\": true,\n        \"link\": \"https://www.qb.com/\",\n        \"name\": \"QB\",\n        \"volume\": 2883534669.1837525\n    },\n    \"RightBTC\": {\n        \"coins_accepted\": [\n            \"Bitcoin\",\n            \"Ethereum\",\n            \"XRP\",\n            \"Tether\",\n            \"Litecoin\",\n            \"Bitcoin Cash\",\n            \"Chainlink\",\n            \"TRON\",\n            \"Monero\",\n            \"EOS\",\n            \"Huobi Token\",\n            \"Tezos\"\n        ],\n        \"currencies\": 25,\n        \"description\": \"Founded in 2014, RightBTC is a cryptocurrency exchange with advanced order types and 24/7 customer support. The exchange can be used on a desktop or on mobile with dedicated iOS and Android apps. RightBTC regularly adds support for new assets which meet listing criteria, and new trading products like the Leveraged ETF.\",\n        \"icon_url\": \"https://static.coinpaprika.com/exchanges/rightbtc/logo.png\",\n        \"id\": 11,\n        \"is_active\": true,\n        \"link\": \"https://www.rightbtc.com\",\n        \"name\": \"RightBTC\",\n        \"volume\": 3921730802.79908\n    },\n    \"Upbit\": {\n        \"coins_accepted\": [\n            \"Bitcoin\",\n            \"Ethereum\",\n            \"XRP\",\n            \"Tether\",\n            \"Dogecoin\",\n            \"Cardano\",\n            \"Litecoin\",\n            \"Bitcoin Cash\",\n            \"Chainlink\",\n            \"Stellar\",\n            \"THETA\",\n            \"TRON\",\n            \"BitTorrent\",\n            \"NEO\",\n            \"EOS\",\n            \"IOTA\",\n            \"Bitcoin SV\",\n            \"Cosmos\",\n            \"LUNA\"\n        ],\n        \"currencies\": 111,\n        \"description\": \"Upbit is a South Korean crypto exchange which released in October 2017. It was created by Korea’s biggest messaging app developer, Kakao, providing 111 altcoins when it was launched. Upbit offers more than 200 trading pairs, as it is in an active partnership with Bittrex. \",\n        \"icon_url\": \"https://static.coinpaprika.com/exchanges/upbit/logo.png\",\n        \"id\": 16,\n        \"is_active\": true,\n        \"link\": \"https://upbit.com/\",\n        \"name\": \"Upbit\",\n        \"volume\": 3759350637.8091164\n    },\n    \"WhiteBIT\": {\n        \"coins_accepted\": [\n            \"Bitcoin\",\n            \"Ethereum\",\n            \"Binance Coin\",\n            \"XRP\",\n            \"Tether\",\n            \"Litecoin\",\n            \"Bitcoin Cash\",\n            \"Chainlink\",\n            \"Stellar\",\n            \"BitTorrent\",\n            \"NEO\",\n            \"Monero\",\n            \"Bitcoin SV\"\n        ],\n        \"currencies\": 35,\n        \"description\": \"Launched in Dec 2018, WhiteBIT is a European centralized exchange that offers crypto-to-crypto and crypto-to-fiat transactions with 0.1% trading fees. With European Exchange and Custody licenses, WhiteBIT meets KYC and AML requirements. It claims to have 150,000+ users from the EU, South America, and Asia registered on the platform. WhiteBIT offers instant transactions with P2P codes, possibility of staking, private and public API & a number of trading tools: limit, market, stop limit and stop market orders. Quick deposits and withdrawals are carried out with InstantSend by Dash.\",\n        \"icon_url\": \"https://static.coinpaprika.com/exchanges/whitebit/logo.png\",\n        \"id\": 44,\n        \"is_active\": true,\n        \"link\": \"https://whitebit.com\",\n        \"name\": \"WhiteBIT\",\n        \"volume\": 1195590600.7503335\n    },\n    \"XT\": {\n        \"coins_accepted\": [\n            \"Bitcoin\",\n            \"Ethereum\",\n            \"Tether\",\n            \"Litecoin\",\n            \"OKB\"\n        ],\n        \"currencies\": 14,\n        \"description\": \"Founded in 2018, XT Exchange is the world's first socialized digital asset trading platform. The platform has a global top-level domain name XT.com, with more than 2 million registered users, more than 200,000 active users monthly, and more than 7 million users in the ecosystem.\",\n        \"icon_url\": \"https://static.coinpaprika.com/exchanges/xt/logo.png\",\n        \"id\": 25,\n        \"is_active\": true,\n        \"link\": \"https://www.xt.com/\",\n        \"name\": \"XT\",\n        \"volume\": 1445289890.9107714\n    },\n    \"ZB.COM\": {\n        \"coins_accepted\": [\n            \"Bitcoin\",\n            \"Ethereum\",\n            \"XRP\",\n            \"Tether\",\n            \"Dogecoin\",\n            \"Cardano\",\n            \"Litecoin\",\n            \"Bitcoin Cash\",\n            \"Stellar\",\n            \"TRON\",\n            \"NEO\",\n            \"Monero\",\n            \"EOS\",\n            \"Bitcoin SV\"\n        ],\n        \"currencies\": 31,\n        \"description\": \"ZB is a Chinese cryptocurrency exchange that launched in the aftermath of the ICO ban in in the country. It offers mainly crypto-to-crypto spot trading, but there is also some crypto-to-fiat trading. According to the information on its website, ZB.COM’s headquarters are in in North America (Canada, the United States), and it also has operations in Southeast Asia (Bangkok), West Asia (Dubai), as well as South Korea, and Switzerland. \",\n        \"icon_url\": \"https://static.coinpaprika.com/exchanges/zbcom/logo.png\",\n        \"id\": 17,\n        \"is_active\": true,\n        \"link\": \"https://www.zb.com/\",\n        \"name\": \"ZB.COM\",\n        \"volume\": 1686610907.3262846\n    },\n    \"ZBG\": {\n        \"coins_accepted\": [\n            \"Bitcoin\",\n            \"Ethereum\",\n            \"XRP\",\n            \"Tether\",\n            \"Dogecoin\",\n            \"Cardano\",\n            \"Litecoin\",\n            \"Stellar\",\n            \"TRON\",\n            \"EOS\",\n            \"Bitcoin SV\"\n        ],\n        \"currencies\": 26,\n        \"description\": \"ZBG is a Chinese cryptocurrency exchange. It launched in July 2018. It is actually a sub-platform of the much larger exchange ZB.com.\",\n        \"icon_url\": \"https://static.coinpaprika.com/exchanges/zbg/logo.png\",\n        \"id\": 19,\n        \"is_active\": true,\n        \"link\": \"https://www.zbg.com/\",\n        \"name\": \"ZBG\",\n        \"volume\": 3995034774.661068\n    }\n}"
				}
			]
		}
	],
	"variable": [
		{
			"key": "url",
			"value": "http://bittrack.me/"
		}
	]
}